\relax 
\select@language{norsk}
\@writefile{toc}{\select@language{norsk}}
\@writefile{lof}{\select@language{norsk}}
\@writefile{lot}{\select@language{norsk}}
\@writefile{toc}{\contentsline {section}{\numberline {1}Delprosjekt I (Tidligere innlevert som egen rapport)}{4}}
\@writefile{toc}{\contentsline {subsection}{\numberline {1.1}Kort beskrivelse}{4}}
\newlabel{likn1}{{1}{4}}
\newlabel{likn2}{{2}{4}}
\newlabel{likn3}{{3}{4}}
\newlabel{likn4}{{4}{4}}
\newlabel{likn5}{{5}{4}}
\@writefile{lof}{\contentsline {figure}{\numberline {1}{\ignorespaces \textit  {Forhold mellom} [$SO_{4}^{2-}$] \textit  {og} [$H^{+}$].}}{5}}
\newlabel{fig:dp1H}{{1}{5}}
\newlabel{likn6}{{6}{5}}
\newlabel{likn7}{{7}{5}}
\newlabel{likn8}{{8}{5}}
\@writefile{toc}{\contentsline {subsection}{\numberline {1.2}Grafiske fremstillinger av simuleringsresultatene}{5}}
\@writefile{lof}{\contentsline {figure}{\numberline {2}{\ignorespaces \textit  {Forhold mellom} [$SO_{4}^{2-}$] \textit  {og} [$Ca^{2+}$].}}{6}}
\newlabel{fig:dp1Ca}{{2}{6}}
\@writefile{lof}{\contentsline {figure}{\numberline {3}{\ignorespaces \textit  {Forhold mellom} [$SO_{4}^{2-}$] \textit  {og} [$HCO_{3}^{-}$].}}{6}}
\newlabel{fig:dp1HCo}{{3}{6}}
\@writefile{lof}{\contentsline {figure}{\numberline {4}{\ignorespaces \textit  {Forhold mellom} [$SO_{4}^{2-}$] \textit  {og} [$Al^{3+}$].}}{7}}
\newlabel{fig:dp1Al}{{4}{7}}
\@writefile{toc}{\contentsline {subsection}{\numberline {1.3}Prosedyren newton}{7}}
\@writefile{lof}{\contentsline {figure}{\numberline {5}{\ignorespaces \textit  {Spline-kurve for temperatur.}}}{9}}
\newlabel{fig:temp}{{5}{9}}
\@writefile{toc}{\contentsline {section}{\numberline {2}Interpolasjon av m\IeC {\aa }ledata med naturlige kubiske splines(Delprosjekt II)}{9}}
\@writefile{toc}{\contentsline {subsection}{\numberline {2.1}Implementering}{9}}
\@writefile{lof}{\contentsline {figure}{\numberline {6}{\ignorespaces \textit  {Spline-kurve for nedb\IeC {\o }r.}}}{10}}
\newlabel{fig:spline_nedb}{{6}{10}}
\@writefile{toc}{\contentsline {subsection}{\numberline {2.2}Prosedyrene LagSpline og EvaSpline}{10}}
\@writefile{lof}{\contentsline {figure}{\numberline {7}{\ignorespaces \textit  {Splinetest, n=15.}}}{12}}
\newlabel{fig:spline_n=15}{{7}{12}}
\@writefile{toc}{\contentsline {subsection}{\numberline {2.3}Testing av spline-prosedyrene}{12}}
\@writefile{lof}{\contentsline {figure}{\numberline {8}{\ignorespaces \textit  {Splinetest, n=20.}}}{13}}
\newlabel{fig:spline_n=20}{{8}{13}}
\@writefile{lof}{\contentsline {figure}{\numberline {9}{\ignorespaces \textit  {Splinetest, n=30.}}}{13}}
\newlabel{fig:spline_n=30}{{9}{13}}
\@writefile{toc}{\contentsline {section}{\numberline {3}Delprosjekt III}{14}}
\newlabel{ligninger}{{9}{14}}
\newlabel{avrenn}{{3}{14}}
\newlabel{sulfatkons_i_avrenn}{{3}{14}}
\@writefile{toc}{\contentsline {subsection}{\numberline {3.1}Massebalanse}{15}}
\@writefile{toc}{\contentsline {subsubsection}{\numberline {3.1.1}Massebalanse for vann}{15}}
\newlabel{bal}{{10}{15}}
\newlabel{VS}{{11}{15}}
\newlabel{HS}{{12}{15}}
\@writefile{toc}{\contentsline {subsubsection}{\numberline {3.1.2}Implementering}{15}}
\newlabel{impl_vann}{{3.1.2}{15}}
\@writefile{toc}{\contentsline {subsubsection}{\numberline {3.1.3}Massebalanse for sulfat}{16}}
\newlabel{bal2}{{13}{16}}
\newlabel{VS2}{{14}{16}}
\newlabel{HS2}{{15}{16}}
\@writefile{lof}{\contentsline {figure}{\numberline {10}{\ignorespaces \textit  {Observert og beregnet avrenning}}}{17}}
\newlabel{fig:vannf}{{10}{17}}
\@writefile{toc}{\contentsline {subsubsection}{\numberline {3.1.4}Implementering}{17}}
\@writefile{toc}{\contentsline {subsection}{\numberline {3.2}Grafiske fremmstillinger}{17}}
\@writefile{lof}{\contentsline {figure}{\numberline {11}{\ignorespaces \textit  {Simulert vannstand i A reservoaret.}}}{18}}
\newlabel{fig:resA}{{11}{18}}
\@writefile{lof}{\contentsline {figure}{\numberline {12}{\ignorespaces \textit  {Simulert vannstand i B reservoaret.}}}{18}}
\newlabel{fig:resB}{{12}{18}}
\@writefile{lof}{\contentsline {figure}{\numberline {13}{\ignorespaces \textit  {Simulert konsentrasjon av} [$SO_{4}^{2-}$] \textit  {i avrenningen.}}}{19}}
\newlabel{fig:CQSO4}{{13}{19}}
\@writefile{lof}{\contentsline {figure}{\numberline {14}{\ignorespaces \textit  {Simulert massebalanse for vann.}}}{19}}
\newlabel{fig:mass_vann}{{14}{19}}
\@writefile{lof}{\contentsline {figure}{\numberline {15}{\ignorespaces \textit  {Simulert massebalanse for sulfat.}}}{20}}
\newlabel{fig:mass_sulfat}{{15}{20}}
\@writefile{toc}{\contentsline {section}{\numberline {4}Delprosjekt IV}{20}}
\@writefile{toc}{\contentsline {subsection}{\numberline {4.1}Konsentrasjonen i reservoarene}{20}}
\@writefile{toc}{\contentsline {subsection}{\numberline {4.2}Konsentrasjonen i avrenningen}{20}}
\@writefile{lof}{\contentsline {figure}{\numberline {16}{\ignorespaces \textit  {Simulert} [$H^{+}$] \textit  {i reservoar A.}}}{21}}
\newlabel{fig:CAH}{{16}{21}}
\@writefile{lof}{\contentsline {figure}{\numberline {17}{\ignorespaces \textit  {Simulert} [$H^{+}$] \textit  {i reservoar B.}}}{21}}
\newlabel{fig:CBH}{{17}{21}}
\@writefile{lof}{\contentsline {figure}{\numberline {18}{\ignorespaces \textit  {Simulert} [$Ca^{2+}$] \textit  {i avrenningen, CQCa.}}}{22}}
\newlabel{fig:CQCa}{{18}{22}}
\@writefile{lof}{\contentsline {figure}{\numberline {19}{\ignorespaces \textit  {Simulert} [$H^{+}$] \textit  {i avrenningen, Q.}}}{23}}
\newlabel{fig:CQH}{{19}{23}}
\@writefile{lof}{\contentsline {figure}{\numberline {20}{\ignorespaces \textit  {Simulert} [$Al^{3+}$] \textit  {i avrenningen, Q.}}}{23}}
\newlabel{fig:CQAl}{{20}{23}}
\@writefile{lof}{\contentsline {figure}{\numberline {21}{\ignorespaces \textit  {Simulert} [$HCO^{}_{3}$] \textit  {i avrenningen, Q.}}}{24}}
\newlabel{fig:CQHCO3}{{21}{24}}
\@writefile{toc}{\contentsline {subsection}{\numberline {4.3}Elektron\IeC {\o }ytralitetsprinsippet}{24}}
\newlabel{elek}{{17}{24}}
\newlabel{likn_e}{{18}{24}}
\@writefile{lof}{\contentsline {figure}{\numberline {22}{\ignorespaces \textit  {Elektron\IeC {\o }ytralitetsprinsippet i avrenningen, Q.}}}{25}}
\newlabel{fig:elektron}{{22}{25}}
\@writefile{toc}{\contentsline {section}{\numberline {5}Test av den hydrologiske delmodellens godhet(Delprosjekt V)}{25}}
\@writefile{toc}{\contentsline {subsection}{\numberline {5.1}Minste kvadraters metode}{25}}
\@writefile{lof}{\contentsline {figure}{\numberline {23}{\ignorespaces \textit  {Differansen mellom observert og beregnet avrenning plottet mot observert avrenning.}}}{26}}
\newlabel{fig:dp5}{{23}{26}}
\@writefile{toc}{\contentsline {subsection}{\numberline {5.2}Prosedyren mkm}{27}}
\@writefile{toc}{\contentsline {section}{\numberline {6}Delprosjekt VI \\Predikasjoner av \textbf  {[$H^+$]} i avrenningen}{29}}
\@writefile{toc}{\contentsline {subsection}{\numberline {6.1}Implementering}{29}}
\@writefile{toc}{\contentsline {subsection}{\numberline {6.2}Grafiske fremstillinger}{29}}
\@writefile{lof}{\contentsline {figure}{\numberline {24}{\ignorespaces \textit  {Prediktert} [$H^+$] \textit  {i avrenningen n\IeC {\aa }r sulfatkonsentrasjonen er det dobbelte av dagens niv\IeC {\aa } i nedb\IeC {\o }ren}.}}{30}}
\newlabel{fig:dbl_sulfat}{{24}{30}}
\@writefile{lof}{\contentsline {figure}{\numberline {25}{\ignorespaces \textit  {Prediktert} [$H^+$] \textit  {i avrenningen n\IeC {\aa }r sulfatkonsentrasjonen er halvparten av dagens niv\IeC {\aa } i nedb\IeC {\o }ren}.}}{30}}
\newlabel{fig:halv_sulfat}{{25}{30}}
\@writefile{lof}{\contentsline {figure}{\numberline {26}{\ignorespaces \textit  {Prediktert} [$H^+$] \textit  {i avrenningen}.}}{31}}
\newlabel{fig:pred_sulfat}{{26}{31}}
\@writefile{toc}{\contentsline {section}{\numberline {7}Programmet}{31}}
\@writefile{toc}{\contentsline {subsection}{\numberline {7.1}modell.sim}{31}}
\@writefile{toc}{\contentsline {subsection}{\numberline {7.2}variabler.sim}{32}}
\@writefile{toc}{\contentsline {subsection}{\numberline {7.3}newton.sim}{33}}
\@writefile{toc}{\contentsline {subsection}{\numberline {7.4}spline.sim}{34}}
\@writefile{toc}{\contentsline {subsection}{\numberline {7.5}euler.sim}{35}}
\@writefile{toc}{\contentsline {subsection}{\numberline {7.6}mkm.sim}{36}}
\@writefile{toc}{\contentsline {subsection}{\numberline {7.7}tester.sim}{37}}
