TitleText: ping statistics, time values
1    432.9 
2    432.2 
3    432.8 
4    423.4 
5    431.6 
6    429.2 
7    430.9 
8    433.9 
9    435.2 
10    566.4 
11    461.4 
12    483.9 
13    450.1 
14    474.0 
15    491.7 
16    491.1 
17    526.9 
18    432.0 
19    430.9 
20    722.6 
21    459.2 
22    540.4 
23    431.0 
24    469.1 
25    435.3 
26    461.1 
27    509.6 
28    438.8 
29    520.8 
30    428.1 
31    461.7 
32    522.0 
33    467.0 
34    463.3 
35    430.0 
36    482.2 
37    561.4 
38    506.8 
39    473.0 
40    430.1 
41    585.1 
42    474.6 
43    480.8 
44    461.8 
45    488.4 
46    481.1 
47    469.9 
48    493.0 
49    578.7 
50    467.2 
51    429.7 
52    498.1 
53    487.0 
54    441.5 
55    432.5 
56    432.7 
57    429.2 
58    497.6 
59    745.7 
60    475.2 
61    460.7 
62    476.0 
63    478.7 
64    435.9 
65    487.7 
66    513.6 
67    434.0 
68    449.6 
69    491.6 
70    463.2 
71    471.7 
72    476.5 
73    412.7 
74    412.8 
75    411.9 
76    419.2 
77    435.7 
78    432.1 
79    411.2 
80    425.4 
81    410.0 
82    411.4 
83    414.0 
84    413.6 
85    414.7 
86    410.3 
87    442.0 
88    504.0 
89    413.6 
90    438.8 
91    447.6 
92    575.6 
93    416.5 
94    414.7 
95    427.2 
96    446.8 
97    449.2 
98    551.9 
99    412.5 
100    411.9 
101    411.7 
102    446.1 
103    447.0 
104    448.5 
105    411.6 
106    440.3 
107    427.8 
108    409.0 
109    410.1 
110    440.4 
111    441.3 
112    424.7 
113    412.7 
114    456.2 
115    414.7 
116    445.7 
117    413.2 
118    442.8 
119    415.5 
120    418.9 
121    411.4 
122    410.9 
123    410.3 
124    411.2 
125    414.5 
126    411.8 
127    421.5 
128    441.2 
129    413.3 
130    427.2 
131    447.1 
132    412.0 
133    416.1 
134    415.4 
135    411.6 
136    422.4 
137    415.7 
138    412.6 
139    414.0 
140    417.7 
141    411.8 
142    409.4 
143    415.4 
144    410.8 
145    413.4 
146    410.5 
147    412.4 
148    416.1 
149    412.6 
150    452.1 
151    411.2 
152    418.0 
153    411.1 
154    412.0 
155    413.9 
156    420.8 
157    413.8 
158    410.0 
159    410.6 
160    414.4 
161    414.2 
162    660.0 
163    660.2 
164    420.0 
165    432.8 
166    416.2 
167    448.1 
168    414.6 
169    422.1 
170    412.7 
171    410.6 
172    658.0 
173    416.6 
174    417.9 
175    412.9 
176    413.5 
177    421.6 
178    418.3 
179    411.5 
180    442.0 
181    425.6 
182    425.8 
183    412.6 
184    413.1 
185    414.5 
186    461.6 
187    418.3 
188    414.1 
189    413.2 
190    437.1 
191    414.8 
192    413.2 
193    416.2 
194    410.0 
195    411.2 
196    413.5 
197    412.9 
