%!PS-Adobe-2.0 EPSF-2.0
%%Creator: gnuplot
%%DocumentFonts: Helvetica
%%BoundingBox: 50 50 410 302
%%EndComments
/gnudict 40 dict def
gnudict begin
/Color false def
/Solid false def
/gnulinewidth 5.000 def
/vshift -46 def
/dl {10 mul} def
/hpt 31.5 def
/vpt 31.5 def
/M {moveto} bind def
/L {lineto} bind def
/R {rmoveto} bind def
/V {rlineto} bind def
/vpt2 vpt 2 mul def
/hpt2 hpt 2 mul def
/Lshow { currentpoint stroke M
  0 vshift R show } def
/Rshow { currentpoint stroke M
  dup stringwidth pop neg vshift R show } def
/Cshow { currentpoint stroke M
  dup stringwidth pop -2 div vshift R show } def
/DL { Color {setrgbcolor Solid {pop []} if 0 setdash }
 {pop pop pop Solid {pop []} if 0 setdash} ifelse } def
/BL { stroke gnulinewidth 2 mul setlinewidth } def
/AL { stroke gnulinewidth 2 div setlinewidth } def
/PL { stroke gnulinewidth setlinewidth } def
/LTb { BL [] 0 0 0 DL } def
/LTa { AL [1 dl 2 dl] 0 setdash 0 0 0 setrgbcolor } def
/LT0 { PL [] 0 1 0 DL } def
/LT1 { PL [4 dl 2 dl] 0 0 1 DL } def
/LT2 { PL [2 dl 3 dl] 1 0 0 DL } def
/LT3 { PL [1 dl 1.5 dl] 1 0 1 DL } def
/LT4 { PL [5 dl 2 dl 1 dl 2 dl] 0 1 1 DL } def
/LT5 { PL [4 dl 3 dl 1 dl 3 dl] 1 1 0 DL } def
/LT6 { PL [2 dl 2 dl 2 dl 4 dl] 0 0 0 DL } def
/LT7 { PL [2 dl 2 dl 2 dl 2 dl 2 dl 4 dl] 1 0.3 0 DL } def
/LT8 { PL [2 dl 2 dl 2 dl 2 dl 2 dl 2 dl 2 dl 4 dl] 0.5 0.5 0.5 DL } def
/P { stroke [] 0 setdash
  currentlinewidth 2 div sub M
  0 currentlinewidth V stroke } def
/D { stroke [] 0 setdash 2 copy vpt add M
  hpt neg vpt neg V hpt vpt neg V
  hpt vpt V hpt neg vpt V closepath stroke
  P } def
/A { stroke [] 0 setdash vpt sub M 0 vpt2 V
  currentpoint stroke M
  hpt neg vpt neg R hpt2 0 V stroke
  } def
/B { stroke [] 0 setdash 2 copy exch hpt sub exch vpt add M
  0 vpt2 neg V hpt2 0 V 0 vpt2 V
  hpt2 neg 0 V closepath stroke
  P } def
/C { stroke [] 0 setdash exch hpt sub exch vpt add M
  hpt2 vpt2 neg V currentpoint stroke M
  hpt2 neg 0 R hpt2 vpt2 V stroke } def
/T { stroke [] 0 setdash 2 copy vpt 1.12 mul add M
  hpt neg vpt -1.62 mul V
  hpt 2 mul 0 V
  hpt neg vpt 1.62 mul V closepath stroke
  P  } def
/S { 2 copy A C} def
end
%%EndProlog
/orig_findfont /findfont load def
/MakeISOLatin1 {
  dup orig_findfont
  dup length dict begin
    { 1 index /FID ne {def} {pop pop} ifelse } forall
    /Encoding ISOLatin1Encoding 256 array copy def
    currentdict
  end
  definefont pop
} def

/findfont { dup dup MakeISOLatin1 orig_findfont } def
gnudict begin
gsave
50 50 translate
0.050 0.050 scale
0 setgray
/Helvetica findfont 140 scalefont setfont
newpath
LTa
840 351 M
6129 0 V
840 351 M
0 4618 V
LTb
840 351 M
63 0 V
6066 0 R
-63 0 V
756 351 M
(0) Rshow
840 928 M
63 0 V
6066 0 R
-63 0 V
756 928 M
(5e-07) Rshow
840 1506 M
63 0 V
6066 0 R
-63 0 V
-6150 0 R
(1e-06) Rshow
840 2083 M
63 0 V
6066 0 R
-63 0 V
-6150 0 R
(1.5e-06) Rshow
840 2660 M
63 0 V
6066 0 R
-63 0 V
-6150 0 R
(2e-06) Rshow
840 3237 M
63 0 V
6066 0 R
-63 0 V
-6150 0 R
(2.5e-06) Rshow
840 3814 M
63 0 V
6066 0 R
-63 0 V
-6150 0 R
(3e-06) Rshow
840 4392 M
63 0 V
6066 0 R
-63 0 V
-6150 0 R
(3.5e-06) Rshow
840 4969 M
63 0 V
6066 0 R
-63 0 V
-6150 0 R
(4e-06) Rshow
840 351 M
0 63 V
0 4555 R
0 -63 V
840 211 M
(0) Cshow
1521 351 M
0 63 V
0 4555 R
0 -63 V
0 -4695 R
(20) Cshow
2202 351 M
0 63 V
0 4555 R
0 -63 V
0 -4695 R
(40) Cshow
2883 351 M
0 63 V
0 4555 R
0 -63 V
0 -4695 R
(60) Cshow
3564 351 M
0 63 V
0 4555 R
0 -63 V
0 -4695 R
(80) Cshow
4245 351 M
0 63 V
0 4555 R
0 -63 V
0 -4695 R
(100) Cshow
4926 351 M
0 63 V
0 4555 R
0 -63 V
0 -4695 R
(120) Cshow
5607 351 M
0 63 V
0 4555 R
0 -63 V
0 -4695 R
(140) Cshow
6288 351 M
0 63 V
0 4555 R
0 -63 V
0 -4695 R
(160) Cshow
6969 351 M
0 63 V
0 4555 R
0 -63 V
0 -4695 R
(180) Cshow
840 351 M
6129 0 V
0 4618 V
-6129 0 V
840 351 L
140 2660 M
currentpoint gsave translate 90 rotate 0 0 M
( mol/L) Cshow
grestore
3904 71 M
( Dager) Cshow
LT0
6486 4766 M
(Justert [HCO3-] i anrenning) Rshow
6570 4766 M
252 0 V
840 4419 M
874 1590 L
908 882 L
34 1 V
34 0 V
34 1 V
34 0 V
34 0 V
34 0 V
34 0 V
35 0 V
34 -5 V
34 524 V
34 3016 V
34 0 V
34 0 V
34 0 V
34 0 V
34 0 V
34 0 V
34 0 V
34 0 V
34 0 V
34 0 V
34 0 V
34 0 V
34 -182 V
1759 786 L
34 14 V
34 30 V
35 1 V
34 0 V
34 0 V
34 0 V
34 -9 V
34 2695 V
34 535 V
2100 748 L
34 15 V
34 24 V
34 -2 V
34 -4 V
34 1 V
34 1 V
34 -1 V
34 -3 V
34 1 V
34 9 V
34 38 V
34 -23 V
35 -13 V
34 0 V
34 0 V
34 0 V
34 0 V
34 -7 V
34 -8 V
34 -6 V
34 -8 V
34 -4 V
34 0 V
34 0 V
34 -3 V
34 -10 V
34 1832 V
34 1842 V
34 0 V
34 0 V
34 0 V
34 0 V
35 0 V
34 0 V
34 0 V
34 0 V
34 0 V
34 0 V
34 0 V
34 0 V
34 -1473 V
3530 840 L
34 18 V
34 14 V
34 14 V
34 0 V
34 -13 V
34 -5 V
34 6 V
34 -6 V
34 0 V
34 0 V
34 0 V
35 0 V
34 -1 V
34 0 V
34 0 V
34 5 V
34 6 V
34 -3 V
34 59 V
34 81 V
34 -23 V
34 38 V
34 10 V
34 -8 V
34 -12 V
34 -6 V
34 14 V
34 -9 V
34 -1 V
34 2 V
35 0 V
34 0 V
34 0 V
34 -39 V
34 -120 V
34 1 V
34 48 V
34 -94 V
34 36 V
34 19 V
34 -2 V
34 26 V
34 0 V
34 0 V
34 0 V
34 0 V
34 -1 V
34 -1 V
34 0 V
34 -57 V
35 1 V
34 36 V
34 5 V
34 -39 V
34 10 V
34 -8 V
34 7 V
34 8 V
34 3 V
34 2 V
34 -22 V
34 -3 V
34 13 V
34 7 V
34 0 V
34 -14 V
34 -29 V
34 10 V
34 13 V
34 8 V
35 1 V
34 0 V
34 0 V
34 0 V
34 0 V
34 -3 V
34 -9 V
34 -9 V
34 -15 V
34 40 V
34 14 V
34 25 V
34 24 V
34 13 V
34 -3 V
34 8 V
34 11 V
34 1 V
34 15 V
34 3 V
34 -19 V
35 -9 V
34 -14 V
34 -9 V
34 -13 V
34 -64 V
34 11 V
34 -8 V
34 -484 V
stroke
grestore
end
showpage
%%Trailer
